Northing	Easting	CGD Mean [mm]
6055000	655000	25.65076916
6055000	665000	26.74754099
6055000	685000	27.8117647
6055000	695000	28.87346929
6065000	605000	28.28222228
6065000	615000	28.12340432
6065000	635000	25.95384631
6065000	645000	26.75555551
6065000	655000	26.34923069
6065000	665000	25.23380285
6065000	675000	25.18333334
6065000	685000	25.77627117
6065000	695000	27.17017545
6075000	515000	25.32551018
6075000	525000	25.88018867
6075000	545000	26.24999997
6075000	595000	27.14166661
6075000	605000	27.89767443
6075000	615000	27.92499984
6075000	625000	26.51463411
6075000	635000	26.67826084
6075000	645000	28.10000012
6075000	655000	27.84576261
6075000	665000	25.51891899
6075000	675000	24.70704224
6075000	685000	25.36031756
6075000	695000	25.51864404
6085000	475000	24.69411777
6085000	485000	24.63285708
6085000	495000	24.86962024
6085000	505000	24.61414141
6085000	515000	24.82058821
6085000	525000	26.14893613
6085000	535000	26.00399996
6085000	545000	26.01147545
6085000	555000	26.08846151
6085000	565000	27.51799999
6085000	575000	26.78478253
6085000	585000	27.01190472
6085000	595000	25.96041667
6085000	605000	28.30238093
6085000	615000	28.1937501
6085000	625000	26.70750022
6085000	635000	26.38461548
6085000	645000	27.38913034
6085000	655000	26.68545459
6085000	665000	26.52857154
6085000	675000	26.25283033
6085000	685000	25.16461543
6085000	695000	25.58793104
6085000	705000	25.93965501
6095000	475000	24.79718308
6095000	485000	24.92777774
6095000	495000	24.85274717
6095000	505000	25.63218382
6095000	515000	24.50222217
6095000	525000	25.76767679
6095000	535000	25.2226666
6095000	545000	25.53333332
6095000	555000	24.70483875
6095000	565000	25.53939392
6095000	575000	26.91875017
6095000	585000	27.19230758
6095000	595000	26.13103459
6095000	605000	28.0020835
6095000	615000	27.61272729
6095000	625000	27.40000002
6095000	635000	25.57826092
6095000	645000	26.47000004
6095000	655000	26.97254895
6095000	665000	26.68983065
6095000	675000	25.20847469
6095000	685000	26.08730165
6095000	695000	26.05714274
6095000	705000	25.84126975
6095000	715000	25.78870976
6095000	725000	25.78461559
6105000	465000	25.40476168
6105000	475000	25.24390235
6105000	485000	24.88977272
6105000	495000	25.29130438
6105000	505000	25.8168317
6105000	515000	25.54893605
6105000	525000	25.38888895
6105000	535000	24.64736836
6105000	545000	25.30847456
6105000	555000	24.84821429
6105000	565000	26.19833339
6105000	575000	26.62758617
6105000	585000	26.38235294
6105000	595000	25.87249992
6105000	605000	26.56052642
6105000	615000	26.08387092
6105000	625000	26.75961546
6105000	655000	26.06875006
6105000	665000	25.25789475
6105000	675000	25.06610182
6105000	685000	25.94393938
6105000	695000	25.81538456
6105000	705000	25.09516131
6105000	715000	24.87777774
6105000	725000	25.95692312
6115000	465000	25.92602743
6115000	475000	25.67123296
6115000	485000	25.66235289
6115000	495000	25.39569902
6115000	505000	25.02095224
6115000	515000	25.07714293
6115000	525000	25.11797749
6115000	535000	25.09767439
6115000	545000	24.62424241
6115000	565000	25.7929826
6115000	575000	25.77692308
6115000	585000	26.42702695
6115000	595000	26.42820515
6115000	605000	26.65769227
6115000	615000	25.49859157
6115000	625000	26.98363616
6115000	635000	26.41428566
6115000	655000	25.60227277
6115000	665000	24.69999992
6115000	675000	24.60327868
6115000	685000	25.20161293
6115000	695000	25.33787866
6115000	705000	24.91999995
6115000	865000	28.5603446
6115000	875000	28.06999989
6115000	885000	28.50819691
6115000	895000	28.96615389
6125000	475000	25.11686746
6125000	485000	25.99529408
6125000	495000	25.4221238
6125000	505000	24.95523811
6125000	515000	24.82549022
6125000	525000	24.87582427
6125000	535000	25.22000008
6125000	545000	25.20845077
6125000	555000	25.8051723
6125000	565000	25.87741944
6125000	575000	25.34406785
6125000	585000	24.86578949
6125000	595000	26.41714287
6125000	605000	27.29402986
6125000	615000	26.38928556
6125000	635000	25.84680845
6125000	645000	25.57826075
6125000	655000	25.27547163
6125000	665000	25.23235299
6125000	675000	25.57288138
6125000	685000	26.07868842
6125000	695000	26.52058834
6125000	705000	26.75571428
6125000	715000	27.70526314
6125000	865000	28.36499993
6125000	875000	29.10512817
6125000	885000	28.66962025
6125000	895000	27.85500014
6135000	465000	25.15833337
6135000	475000	24.41744183
6135000	485000	26.35312496
6135000	495000	26.27551028
6135000	505000	26.4895239
6135000	515000	25.11047623
6135000	525000	25.67156863
6135000	535000	25.70232564
6135000	545000	24.80000005
6135000	555000	24.65901631
6135000	565000	25.11515167
6135000	575000	24.45454551
6135000	585000	25.01571429
6135000	595000	26.30526318
6135000	605000	26.28571422
6135000	615000	26.3603774
6135000	635000	25.62745098
6135000	645000	26.26938785
6135000	655000	26.21481468
6135000	665000	25.85972224
6135000	675000	26.42419344
6135000	685000	27.59230769
6135000	695000	27.3652174
6135000	705000	28.17058818
6135000	715000	28.14262299
6135000	865000	29.06307708
6135000	875000	29.36805558
6135000	885000	28.95588235
6145000	455000	25.36301378
6145000	465000	25.17530867
6145000	475000	25.12469143
6145000	485000	25.71460677
6145000	495000	26.30000006
6145000	505000	25.56293088
6145000	515000	25.88877542
6145000	525000	25.7677777
6145000	535000	25.1505377
6145000	545000	25.25285704
6145000	555000	25.36323528
6145000	565000	25.45454534
6145000	575000	25.6333334
6145000	585000	25.22711867
6145000	595000	26.07222222
6145000	605000	26.13333321
6145000	615000	25.62599998
6145000	635000	25.73333327
6145000	645000	26.70526334
6145000	655000	26.83870974
6145000	665000	27.08059701
6145000	675000	27.77187499
6145000	685000	27.99206337
6145000	695000	27.07647052
6145000	705000	28.2890625
6145000	715000	27.98253989
6145000	865000	29.93709672
6145000	895000	29.35172403
6155000	445000	25.89756105
6155000	455000	25.35492956
6155000	465000	25.50253158
6155000	475000	26.35909089
6155000	485000	25.73584898
6155000	495000	25.89152545
6155000	505000	25.906542
6155000	515000	26.1340207
6155000	525000	25.03736261
6155000	535000	24.77402608
6155000	545000	24.77972964
6155000	555000	24.92631576
6155000	565000	25.58103443
6155000	575000	25.83454541
6155000	585000	25.49056611
6155000	595000	25.64313724
6155000	605000	26.67031243
6155000	615000	26.70816328
6155000	635000	27.57600002
6155000	645000	26.89107139
6155000	655000	26.68305077
6155000	665000	26.66451605
6155000	675000	28.33606561
6155000	685000	27.7874999
6155000	695000	27.43030294
6155000	705000	27.89672129
6165000	445000	25.05454545
6165000	455000	25.26511636
6165000	465000	25.86470582
6165000	475000	26.94239133
6165000	485000	25.88673467
6165000	495000	26.01896547
6165000	505000	25.27586212
6165000	515000	25.03663365
6165000	525000	24.75000016
6165000	535000	24.87411757
6165000	545000	25.10897436
6165000	555000	24.41076915
6165000	575000	24.81489372
6165000	585000	25.37142856
6165000	605000	26.86470593
6165000	635000	26.3166666
6165000	645000	26.31363635
6165000	655000	26.777966
6165000	665000	27.88000004
6165000	675000	27.01803273
6165000	685000	26.62153851
6165000	695000	28.27936509
6165000	705000	28.91093749
6165000	715000	27.82608698
6165000	725000	26.68611119
6165000	735000	27.58181818
6175000	445000	24.87558136
6175000	455000	25.74395597
6175000	465000	24.620909
6175000	475000	26.88131871
6175000	485000	26.69381443
6175000	495000	26.58750003
6175000	505000	25.83655928
6175000	515000	24.65465111
6175000	525000	24.78117649
6175000	535000	24.63684213
6175000	545000	24.25232559
6175000	555000	24.76075955
6175000	565000	24.5777778
6175000	585000	25.21041663
6175000	625000	26.32941179
6175000	635000	26.30000016
6175000	645000	26.32380949
6175000	655000	26.97666655
6175000	665000	27.40370372
6175000	675000	27.93725496
6175000	685000	27.81764692
6175000	695000	27.17846154
6175000	705000	27.89545441
6175000	715000	27.69459451
6175000	725000	26.42692304
6175000	735000	26.34225362
6185000	445000	24.58555554
6185000	455000	24.58571425
6185000	465000	25.10116287
6185000	475000	26.02403852
6185000	485000	26.30096155
6185000	495000	27.40941185
6185000	505000	25.89462358
6185000	515000	25.01666668
6185000	525000	24.36883124
6185000	535000	24.96282054
6185000	545000	24.24927521
6185000	555000	25.29454557
6185000	565000	24.35740739
6185000	575000	24.34999994
6185000	585000	24.71538456
6185000	595000	25.19818195
6185000	605000	25.51923077
6185000	645000	26.58474583
6185000	655000	27.2562499
6185000	665000	27.80967728
6185000	675000	27.69090913
6185000	685000	27.74181799
6185000	695000	27.19672134
6185000	705000	28.56557368
6185000	715000	28.4905404
6185000	725000	27.48571426
6195000	445000	24.51604942
6195000	455000	24.82054797
6195000	465000	25.04074071
6195000	475000	25.44588235
6195000	485000	25.94022994
6195000	495000	26.32708339
6195000	505000	26.12921348
6195000	515000	25.3746666
6195000	525000	24.81098913
6195000	535000	25.14929565
6195000	545000	24.1234377
6195000	555000	24.84305551
6195000	565000	24.94827596
6195000	575000	25.07142857
6195000	595000	25.39622656
6195000	605000	25.59655173
6195000	635000	25.49137941
6195000	645000	26.06078428
6195000	655000	27.60153841
6195000	665000	28.99305558
6195000	675000	27.69310366
6195000	685000	27.76949162
6195000	695000	28.18500007
6195000	705000	27.96081076
6195000	715000	27.74444436
6195000	725000	27.27866646
6205000	445000	23.99651161
6205000	455000	24.56883118
6205000	465000	25.78080803
6205000	475000	25.12871285
6205000	485000	25.00000021
6205000	495000	25.32795695
6205000	505000	26.01318686
6205000	515000	26.12162157
6205000	525000	25.04022986
6205000	535000	24.56455689
6205000	545000	24.59740255
6205000	555000	25.16666669
6205000	565000	25.41818168
6205000	575000	24.86470593
6205000	585000	25.17884621
6205000	595000	26.63541671
6205000	645000	27.0959185
6205000	655000	27.1596153
6205000	665000	28.38688528
6205000	675000	28.50161291
6205000	685000	28.15970142
6205000	695000	27.9275362
6205000	705000	28.05402284
6205000	715000	27.4614458
6205000	725000	27.66197186
6215000	445000	24.96516836
6215000	455000	25.2952941
6215000	465000	25.85384616
6215000	475000	25.0352
6215000	485000	24.58508779
6215000	495000	25.47064211
6215000	505000	25.79139787
6215000	515000	25.98641968
6215000	525000	25.64146349
6215000	535000	25.28815786
6215000	545000	24.76388886
6215000	555000	24.65072466
6215000	565000	24.92031249
6215000	575000	25.09195398
6215000	595000	26.6518519
6215000	685000	28.62758617
6215000	695000	28.11641776
6215000	705000	28.26486487
6215000	715000	28.63661981
6215000	725000	28.86901399
6225000	445000	25.23896103
6225000	455000	25.35632184
6225000	465000	25.76016943
6225000	475000	24.74628097
6225000	485000	24.76587309
6225000	495000	25.17403841
6225000	505000	25.40526312
6225000	515000	25.67500002
6225000	525000	26.23972605
6225000	535000	25.33239434
6225000	545000	24.93709678
6225000	555000	24.82758611
6225000	565000	25.76551714
6225000	575000	25.34999988
6225000	585000	25.53749998
6225000	595000	26.74328351
6225000	605000	27.68115956
6225000	695000	29.58571434
6225000	705000	29.25714284
6225000	715000	29.06323531
6235000	445000	25.27000006
6235000	455000	25.58365385
6235000	465000	25.38852468
6235000	475000	24.36495732
6235000	485000	24.55047611
6235000	495000	25.36185558
6235000	505000	25.46666665
6235000	515000	24.97750001
6235000	525000	25.99076922
6235000	535000	26.21111101
6235000	545000	25.18275879
6235000	555000	24.01492532
6235000	565000	25.30416674
6235000	575000	25.51971814
6235000	585000	25.40294103
6235000	595000	26.43382353
6235000	605000	27.16944443
6235000	615000	26.83285721
6245000	445000	25.70235306
6245000	455000	25.88247401
6245000	465000	25.28099991
6245000	475000	24.58648656
6245000	485000	25.00776693
6245000	495000	24.80306108
6245000	505000	24.98139541
6245000	515000	24.94324321
6245000	525000	24.83606567
6245000	535000	26.3476191
6245000	545000	25.07968754
6245000	555000	25.01296312
6245000	565000	25.34736841
6245000	575000	25.3166667
6245000	585000	25.17424242
6245000	595000	26.03283583
6245000	605000	26.42063504
6245000	615000	26.29696979
6255000	445000	26.00869554
6255000	455000	26.11485138
6255000	465000	26.60594051
6255000	475000	26.35976995
6255000	485000	25.76489363
6255000	495000	24.88876398
6255000	505000	25.37560982
6255000	515000	25.52461545
6255000	525000	25.14999989
6255000	535000	25.10468751
6255000	545000	25.60877181
6255000	555000	24.80526322
6255000	565000	25.60370368
6255000	575000	25.59259252
6255000	585000	25.72909095
6255000	595000	27.14137922
6255000	605000	26.4712121
6255000	615000	26.74655188
6265000	445000	25.87865172
6265000	455000	25.72970292
6265000	465000	26.61954029
6265000	475000	26.67802184
6265000	485000	25.8064103
6265000	495000	25.40133329
6265000	505000	25.57826092
6265000	515000	25.74029837
6265000	525000	25.89062503
6265000	535000	26.04482746
6265000	545000	25.93207546
6265000	555000	25.84035077
6265000	565000	25.50624996
6265000	575000	25.75757582
6265000	585000	25.95932201
6265000	595000	26.21052625
6265000	605000	26.8344261
6265000	615000	27.45000017
6275000	445000	25.75609751
6275000	455000	26.11777772
6275000	465000	26.09340664
6275000	475000	26.58072285
6275000	485000	26.28571434
6275000	495000	25.11927717
6275000	505000	25.54666656
6275000	515000	25.14999995
6275000	525000	25.2791044
6275000	535000	26.06538457
6275000	545000	25.3716982
6275000	555000	26.56199993
6275000	565000	27.07727265
6275000	575000	28.0681817
6275000	585000	28.70357139
6285000	455000	25.55238097
6285000	465000	25.66666678
6285000	475000	25.86979169
6285000	485000	25.52197798
6285000	495000	25.42048188
6285000	505000	25.18684212
6285000	515000	25.29999995
6285000	525000	26.11607156
6285000	535000	26.06458322
6285000	545000	24.81666667
6285000	555000	25.96363634
6285000	565000	27.66406262
6285000	575000	27.76231887
6285000	585000	27.98644056
6285000	655000	28.63783785
6285000	665000	28.63802819
6295000	455000	25.09361701
6295000	465000	24.94819262
6295000	475000	25.11630436
6295000	485000	25.82790694
6295000	495000	25.8662338
6295000	505000	25.23199992
6295000	515000	25.57794119
6295000	525000	26.78965529
6295000	535000	25.89811329
6295000	545000	25.49444432
6295000	555000	26.33333343
6295000	565000	27.14109583
6295000	575000	27.60967738
6295000	665000	28.65428581
6305000	455000	24.31827953
6305000	465000	24.36129045
6305000	475000	25.00104167
6305000	485000	25.08947374
6305000	495000	25.30972221
6305000	505000	25.58125007
6305000	515000	25.27384614
6305000	525000	26.16142851
6305000	535000	26.09677413
6305000	545000	25.38219175
6305000	555000	27.52794106
6305000	565000	27.15522396
6305000	575000	27.34062487
6315000	455000	24.17196256
6315000	465000	24.53981479
6315000	475000	24.8452174
6315000	485000	25.02200001
6315000	495000	25.49230769
6315000	505000	24.92142854
6315000	515000	25.29710142
6315000	525000	26.00588224
6315000	535000	25.9344262
6315000	545000	25.9933334
6315000	555000	27.92631601
6315000	565000	27.43787867
6315000	575000	27.43235316
6315000	585000	27.82142852
6325000	465000	24.51999999
6325000	475000	24.90086962
6325000	485000	25.18500004
6325000	495000	25.00200005
6325000	505000	25.3126436
6325000	515000	24.71481483
6325000	525000	25.39473679
6325000	535000	25.86451623
6325000	545000	26.59803937
6325000	555000	29.27291691
6325000	565000	28.31475417
6325000	575000	27.13076926
6325000	585000	28.63333337
6335000	495000	25.65523818
6335000	505000	25.73749991
6335000	515000	24.87228911
6335000	525000	25.6410958
6335000	535000	25.92238805
6335000	545000	26.45166661
6335000	555000	27.08333348
6335000	565000	27.92769235
6335000	575000	27.63157905
6335000	585000	27.97468342
6345000	535000	26.28289489
6345000	545000	26.52499996
6345000	555000	26.80895518
6345000	565000	26.74078951
6345000	575000	26.33762379
6345000	585000	26.69367083
6345000	595000	26.95263152
6345000	615000	28.81060609
6345000	625000	27.75479442
6355000	545000	27.48888894
6355000	555000	27.03913042
6355000	565000	26.80389595
6355000	575000	26.32947372
6355000	585000	26.71975308
6355000	595000	26.55697685
6355000	615000	29.48593777
6355000	625000	28.78235306
6365000	545000	27.72837848
6365000	555000	26.50281699
6365000	565000	26.52000005
6365000	575000	28.08295454
6365000	585000	27.28160928
6365000	595000	27.84470585
6375000	555000	27.0111111
6375000	565000	27.23766238
6375000	575000	27.24578306
6375000	585000	26.97000001
6375000	595000	27.85119043
6385000	555000	26.70459763
6385000	565000	27.48160917
6385000	575000	26.70549451
6385000	585000	26.94767426
6395000	585000	26.93928569
6395000	595000	26.63409088
