Variabel	b_0	b_1	V(b_0)	Cov	V(b_1)	Res.var.	z_0
i1m	0.4196	0.005867	1.018	-0.001424	0.000002052	0.2585	16.7
i2m	0.8235	0.003563	0.4795	-0.000652	9.338E-07	0.07123	14.9
i5m	1.476	0.002358	0.426	-0.0005784	8.288E-07	0.05954	10.6
i10m	1.849	0.001617	0.4891	-0.0006716	9.606E-07	0.07872	7.34
i30m	1.825	0.001608	0.4262	-0.0005778	8.253E-07	0.05434	3.74
i60m	2.072	0.001216	0.5172	-0.0007054	0.000001005	0.07326	2.39
i3h	1.197	0.002487	0.6343	-0.0008709	0.000001238	0.09659	1.19
i6h	0.06127	0.004148	0.7759	-0.00107	0.000001522	0.1367	0.753
i12h	-1.19	0.005986	0.722	-0.0009897	0.000001407	0.1183	0.453
i24h	-2.326	0.007589	0.6632	-0.0009061	0.000001288	0.1028	0.267
i48h	-3.663	0.009581	0.4845	-0.0006538	9.303E-07	0.05693	0.16
i7d	-5.393	0.01227	0.4574	-0.0006124	8.723E-07	0.05298	0.0668