Variabel	b_0	b_1	V(b_0)	Cov	V(b_1)	Res.var.
i1m	7.645	0.003626	0.9101	-0.001301	0.000001879	0.2435
i2m	4.09	0.006129	0.8264	-0.001179	0.000001701	0.2283
i5m	2.409	0.004793	0.3013	-0.0004268	0.000000612	0.05447
i10m	2.147	0.002667	0.1201	-0.0001694	2.419E-07	0.0135
i30m	1.338	0.001141	0.03293	-0.00004636	6.605E-08	0.004361
i60m	0.8995	0.0007543	0.01125	-0.00001578	2.241E-08	0.001201
i3h	0.4139	0.0004773	0.003204	-0.00000449	6.371E-09	0.0005066
i6h	0.2218	0.0003677	0.001285	-0.000001793	2.541E-09	0.0001787
i12h	0.08285	0.0002887	0.0005086	-7.079E-07	1.004E-09	0.00007104
i24h	0.03176	0.0001896	0.0002185	-3.038E-07	4.31E-10	0.00003499
i48h	0.01641	0.0001106	0.00008805	-1.222E-07	1.734E-10	0.00001437
i7d	-0.0009358	0.00005261	0.0000144	-1.977E-08	2.806E-11	0.00000183
