parameter LAMBDA LAMBDA LAMBDA LAMBDA LAMBDA LAMBDA MEAN MEAN MEAN MEAN MEAN MEAN L-CV L-CV L-CV Kappa Kappa Kappa
Variabel b_0 b_1 V(b_0) Cov V(b_1) Res.var. b_0 b_1 V(b_0) Cov V(b_1) Res.var. mean res. var pred. var. mean res.var. pred. var.
i1m -3.16E-01 6.91E-03 1.22E+00 -1.71E-03 2.46E-06 2.43E-01 5.39E+00 0.00E+00 1.73E-02 0.00E+00 0.00E+00 1.63E-01 6.20E-01 1.91E-04 2.08E-04 -3.88E-01 1.29E-03 1.40E-03
i2m 3.93E-01 4.17E-03 5.92E-01 -8.11E-04 1.16E-06 6.79E-02 5.69E+00 0.00E+00 1.99E-02 0.00E+00 0.00E+00 1.69E-01 5.65E-01 0.00E+00 1.84E-05 -0.228834573 0.00E+00 1.81E-04
i5m 1.28E+00 2.64E-03 5.36E-01 -7.34E-04 1.05E-06 5.97E-02 4.79E+00 0.00E+00 1.28E-02 0.00E+00 0.00E+00 6.98E-02 5.44E-01 0.00E+00 2.04E-05 -0.160073597 0.00E+00 2.33E-04
i10m 1.70E+00 1.83E-03 6.16E-01 -8.52E-04 1.22E-06 7.86E-02 3.88E+00 0.00E+00 7.30E-03 0.00E+00 0.00E+00 1.04E-02 5.14E-01 0.00E+00 2.17E-05 -0.055609566 0.00E+00 3.10E-04
i30m 1.71E+00 1.77E-03 5.41E-01 -7.41E-04 1.06E-06 5.47E-02 1.95E+00 0.00E+00 2.55E-03 0.00E+00 0.00E+00 1.06E-02 5.42E-01 3.75E-04 4.09E-04 -0.15430048 4.36E-03 4.74E-03
i60m 1.88E+00 1.48E-03 6.59E-01 -9.06E-04 1.29E-06 7.27E-02 1.16E+00 0.00E+00 1.12E-03 0.00E+00 0.00E+00 6.96E-03 5.42E-01 3.56E-04 3.94E-04 -0.15498155 4.13E-03 4.56E-03
i3h 1.01E+00 2.75E-03 8.22E-01 -1.14E-03 1.61E-06 9.74E-02 1.00E-01 1.50E-02 1.28E-01 -4.84E-03 1.84E-04 1.07E-03 5.40E-01 4.68E-04 5.16E-04 -0.147462023 5.52E-03 6.07E-03
i6h -2.90E-01 4.64E-03 1.01E+00 -1.39E-03 1.98E-06 1.38E-01 -7.10E-02 1.37E-02 4.42E-02 -1.67E-03 6.34E-05 2.26E-04 5.41E-01 0.00E+00 4.06E-05 -0.150887574 0.00E+00 4.75E-04
i12h -1.68E+00 6.68E-03 9.49E-01 -1.31E-03 1.86E-06 1.22E-01 -2.01E-01 1.41E-02 1.36E-02 -5.15E-04 1.96E-05 3.28E-05 5.40E-01 5.96E-05 1.04E-04 -0.146775389 7.03E-04 1.23E-03
i24h -2.86E+00 8.34E-03 8.95E-01 -1.23E-03 1.75E-06 1.12E-01 -1.59E-01 9.90E-03 5.71E-03 -2.16E-04 8.21E-06 4.13E-05 5.34E-01 0.00E+00 5.02E-05 -0.126288177 0.00E+00 6.19E-04
i48h -4.35E+00 1.06E-02 6.81E-01 -9.31E-04 1.32E-06 7.09E-02 -4.20E-02 3.92E-03 1.90E-03 -7.19E-05 2.73E-06 1.38E-05 5.19E-01 7.29E-05 1.34E-04 -0.072474942 1.01E-03 1.85E-03
i7d -6.48E+00 1.38E-02 6.34E-01 -8.61E-04 1.23E-06 6.44E-02 -1.13E-03 3.68E-05 5.14E-05 -6.78E-08 9.18E-11 2.82E-06 4.91E-01 3.10E-04 3.83E-04 0.036245164 5.33E-03 6.59E-03


